{
    "count": 1039,
    "next": "https://pokeapi.co/api/v2/location/?offset=40&limit=20",
    "previous": "https://pokeapi.co/api/v2/location/?offset=0&limit=20",
    "results": [
        {
            "name": "ruin-maniac-cave",
            "url": "https://pokeapi.co/api/v2/location/22/"
        },
        {
            "name": "trophy-garden",
            "url": "https://pokeapi.co/api/v2/location/23/"
        },
        {
            "name": "iron-island",
            "url": "https://pokeapi.co/api/v2/location/24/"
        },
        {
            "name": "old-chateau",
            "url": "https://pokeapi.co/api/v2/location/25/"
        },
        {
            "name": "lake-verity",
            "url": "https://pokeapi.co/api/v2/location/26/"
        },
        {
            "name": "lake-valor",
            "url": "https://pokeapi.co/api/v2/location/27/"
        },
        {
            "name": "lake-acuity",
            "url": "https://pokeapi.co/api/v2/location/28/"
        },
        {
            "name": "valor-lakefront",
            "url": "https://pokeapi.co/api/v2/location/29/"
        },
        {
            "name": "acuity-lakefront",
            "url": "https://pokeapi.co/api/v2/location/30/"
        },
        {
            "name": "sinnoh-route-201",
            "url": "https://pokeapi.co/api/v2/location/31/"
        },
        {
            "name": "sinnoh-route-202",
            "url": "https://pokeapi.co/api/v2/location/32/"
        },
        {
            "name": "sinnoh-route-203",
            "url": "https://pokeapi.co/api/v2/location/33/"
        },
        {
            "name": "sinnoh-route-204",
            "url": "https://pokeapi.co/api/v2/location/34/"
        },
        {
            "name": "sinnoh-route-205",
            "url": "https://pokeapi.co/api/v2/location/35/"
        },
        {
            "name": "sinnoh-route-206",
            "url": "https://pokeapi.co/api/v2/location/36/"
        },
        {
            "name": "sinnoh-route-207",
            "url": "https://pokeapi.co/api/v2/location/37/"
        },
        {
            "name": "sinnoh-route-208",
            "url": "https://pokeapi.co/api/v2/location/38/"
        },
        {
            "name": "sinnoh-route-209",
            "url": "https://pokeapi.co/api/v2/location/39/"
        },
        {
            "name": "lost-tower",
            "url": "https://pokeapi.co/api/v2/location/40/"
        },
        {
            "name": "sinnoh-route-210",
            "url": "https://pokeapi.co/api/v2/location/41/"
        }
    ]
}